--------------------------------------------------
--------------------------------------------------
--------------------------------------------------
-----------------------------------------------XXX
----------------------------------------------X---
---------------------------------------------X----
-------------------------------------------XX-----
------------------------------------------X-------
----------------XXX-----------------------X-------
----------------X--XXXXXXXXXXXXXXXXXXXXXXXX-------
--------------XX----------------------------------
--------------X----XXXXXXXXXXXXXXXXXXXXXXXXXX-----
--------------X----X------------------------X-----
--------------X----X------------------------X-----
--------------X----X-------------------------X---X
--------------X----X--------------------------XXX-
---------------X-XXX------------------------------
---------------X-X--------------------------------
---------------X-X--------------------------------
---------------X-X--------------------------------
---------------X-X--------------------------------
---------------X-X--------------------------------
---------------X-X--------------------------------
---------------X-X--------------------------------
---------------X-X--------------------------------
---------------X-X--------------------------------
---------------X-X--------------------------------
---------------X-X--------------------------------
---------------X-X--------------------------------
---------------X-X--------------------------------
---------------X-X--------------------------------
---------------X-X--------------------------------
---------------X-X--------------------------------
---------------X-X--------------------------------
---------------X-X--------------------------------
---------------X-X--------------------------------
---------------X-X--------------------------------
---------------X-X--------------------------------
---------------X-X--------------------------------
---------------X-X--------------------------------
---------------X-X--------------------------------
---------------X-X--------------------------------
---------------X-X--------------------------------
--------------------------------------------------
--------------------------------------------------
--------------------------------------------------
--------------------------------------------------
--------------------------------------------------
--------------------------------------------------
--------------------------------------------------
